%!PS-Adobe-3.0 EPSF-3.0 
%%BoundingBox: 0 0 595 842
%%Pages: 0
%%Creator: LibreOffice 6.1
%%Title: none
%%CreationDate: none
%%LanguageLevel: 2
%%EndComments
%%BeginProlog
%%BeginResource: procset SDRes-Prolog 1.0 0
/b4_inc_state save def
/dict_count countdictstack def
/op_count count 1 sub def
userdict begin
0 setgray 0 setlinecap 1 setlinewidth 0 setlinejoin 10 setmiterlimit[] 0 setdash newpath
/languagelevel where {pop languagelevel 1 ne {false setstrokeadjust false setoverprint} if} if
/bdef {bind def} bind def
/c {setgray} bdef
/l {neg lineto} bdef
/rl {neg rlineto} bdef
/lc {setlinecap} bdef
/lj {setlinejoin} bdef
/lw {setlinewidth} bdef
/ml {setmiterlimit} bdef
/ld {setdash} bdef
/m {neg moveto} bdef
/ct {6 2 roll neg 6 2 roll neg 6 2 roll neg curveto} bdef
/r {rotate} bdef
/t {neg translate} bdef
/s {scale} bdef
/sw {show} bdef
/gs {gsave} bdef
/gr {grestore} bdef
/f {findfont dup length dict begin
{1 index /FID ne {def} {pop pop} ifelse} forall /Encoding ISOLatin1Encoding def
currentdict end /NFont exch definefont pop /NFont findfont} bdef
/p {closepath} bdef
/sf {scalefont setfont} bdef
/ef {eofill}bdef
/pc {closepath stroke}bdef
/ps {stroke}bdef
/pum {matrix currentmatrix}bdef
/pom {setmatrix}bdef
/bs {/aString exch def /nXOfs exch def /nWidth exch def currentpoint nXOfs 0 rmoveto pum nWidth aString stringwidth pop div 1 scale aString show pom moveto} bdef
%%EndResource
%%EndProlog
%%BeginSetup
%%EndSetup
%%Page: 1 1
%%BeginPageSetup
%%EndPageSetup
pum
0.02833 0.02835 s 
0 -29700 t
/tm matrix currentmatrix def
gs
tm setmatrix
-1105 -1072 t 
1 1 s 
1105 1072 m 22104 1072 l 22104 30771 l 1105 30771 l 1105 1072 l eoclip newpath
gs
1105 1072 m 22104 1072 l 22104 30771 l 1105 30771 l 1105 1072 l eoclip newpath
gs
0.753 c 11605 1072 m  17558 1072 22105 5483 22105 11258 ct 22105 17033 17558 21444 11605 21444 ct 
5652 21444 1105 17033 1105 11258 ct 1105 5483 5652 1072 11605 1072 ct p ef
gr
gs
1920.30303 lw 1 lj 0.109 c 11605 1072 m  17558 1072 22105 5483 22105 11258 ct 
22105 17033 17558 21444 11605 21444 ct 5652 21444 1105 17033 1105 11258 ct 1105 5483 5652 1072 11605 1072 ct 
pc
gr
pum
3021 15308 t
0.452 c 8191 -2376 m  8191 -1619 7908 -1034 7340 -621 ct 6773 -207 5985 0 4976 0 ct 
810 0 l  810 -8327 l  4622 -8327 l  5638 -8327 6408 -8151 6930 -7798 ct 7452 -7446 7713 -6925 7713 -6235 ct 
7713 -5762 7582 -5363 7320 -5038 ct 7058 -4713 6659 -4494 6123 -4379 ct 6797 -4301 7310 -4089 7663 -3744 ct 
8015 -3399 8191 -2943 8191 -2376 ct p
5957 -5999 m  5957 -6373 5838 -6639 5600 -6797 ct 5362 -6954 5008 -7033 4539 -7033 ct 
2553 -7033 l  2553 -4970 l  4551 -4970 l  5043 -4970 5401 -5056 5624 -5227 ct 
5846 -5399 5957 -5656 5957 -5999 ct p
6442 -2512 m  6442 -3292 5883 -3682 4764 -3682 ct 2553 -3682 l  2553 -1294 l 
4829 -1294 l  5388 -1294 5797 -1396 6055 -1599 ct 6313 -1802 6442 -2106 6442 -2512 ct 
p ef
16611 -2400 m  16611 -1584 16309 -961 15704 -529 ct 15099 -98 14212 118 13042 118 ct 
11974 118 11137 -71 10530 -449 ct 9923 -828 9533 -1401 9360 -2169 ct 11044 -2447 l 
11158 -2006 11381 -1686 11712 -1487 ct 12043 -1288 12502 -1188 13089 -1188 ct 
14307 -1188 14915 -1559 14915 -2299 ct 14915 -2536 14845 -2731 14705 -2884 ct 
14566 -3038 14369 -3166 14114 -3269 ct 13860 -3371 13373 -3495 12652 -3641 ct 
12029 -3787 11596 -3904 11351 -3993 ct 11107 -4081 10887 -4186 10689 -4306 ct 
10492 -4426 10325 -4571 10187 -4740 ct 10049 -4910 9942 -5109 9865 -5337 ct 
9788 -5566 9750 -5828 9750 -6123 ct 9750 -6876 10032 -7452 10598 -7852 ct 11163 -8252 11986 -8452 13065 -8452 ct 
14098 -8452 14873 -8290 15391 -7967 ct 15909 -7644 16243 -7110 16393 -6366 ct 
14702 -6135 l  14616 -6494 14439 -6764 14174 -6945 ct 13908 -7126 13526 -7217 13030 -7217 ct 
11974 -7217 11446 -6886 11446 -6224 ct 11446 -6007 11502 -5830 11614 -5692 ct 
11727 -5554 11893 -5437 12114 -5340 ct 12334 -5244 12782 -5123 13455 -4977 ct 
14255 -4807 14828 -4651 15172 -4507 ct 15517 -4363 15790 -4196 15991 -4004 ct 
16192 -3813 16346 -3585 16452 -3319 ct 16558 -3053 16611 -2747 16611 -2400 ct 
p ef
pom
gs
1920.30303 lw 1 lj 0.109 c 4200 18549 m  19618 3591 l  ps
gr
gr
gs
1105 1072 m 22104 1072 l 22104 30771 l 1105 30771 l 1105 1072 l eoclip newpath
gr
gr
0 29700 t 
pom
count op_count sub {pop} repeat countdictstack dict_count sub {end} repeat b4_inc_state restore
%%PageTrailer
%%Trailer
%%EOF
